hw5.utf8
…
  summary <- Liquor %>% group_by(Date) %>% summarize(
    'Number of Sales'             = n(),
    'Volume of Liquor Sold (L)'   = sum(`Volume Sold (Liters)`),
    'Volume of Liquor Sold (Gal)' = sum(`Volume Sold (Gallons)`),
    'Money Spent'                 = sum(`Sale (Dollars)`),
  )

  summary

## # A tibble: 157 x 5
##    Date    `Number of Sale `Volume of Liquor `Volume of Liquor  `Money Spent`
##    <chr>              <int>              <dbl>               <dbl>         <dbl>
##  1 01/03/              957              6816.              1795.        112009.
##  2 01/04/              143              1256.               331.         16766.
##  3 01/09/              944              6732.              1773.         99703.
##  4 01/10/                2               135                 35.6         1457.
##  5 01/11/              177              1205.               317.         16481.
##  6 01/16/              912              8227.              2168.        118597.
##  7 01/18/               62               232.                60.8         4483.
##  8 01/24/             1221              9239.              2434.        139658.
##  9 01/25/              253              2329.               614.         31893.
## 10 01/30/             1082              8752.              2306.        127225.
## #  with 147 more rows
…
